Agency Funds Exploration
…
Code

agency_funds %>% 
  filter(major_type != "COOK COUNTY" & minor_type != "SSA") %>%
  filter(year == 2022 & levy > 0) %>%
  group_by(fund_name, capped_ind) %>%
  summarize(n = n()) %>% arrange(desc(n)) %>%
  pivot_wider(names_from = capped_ind, values_from = n)

# A tibble: 69 × 3
# Groups:   fund_name [69]
   fund_name                     `1`   `0`
   <chr>                       <int> <int>
 1 LEVY ADJUSTMENT PA 102-0519   495    NA
 2 CORPORATE                     425    NA
 3 I.M.R.F.                      371    NA
 4 SOCIAL SECURITY               365    NA
 5 LIABILITY INSURANCE           317    NA
 6 LIMITED BONDS                  NA   210
 7 AUDITING                      192    NA
 8 EDUCATION                     164    NA
 9 BUILDING                      163    NA
10 TRANSPORTATION                150    NA
# ℹ 59 more rows

Code

agency_funds %>% 
  filter(major_type != "COOK COUNTY" & minor_type != "SSA") %>%
  filter(year == 2022 & levy > 0) %>%
  group_by(major_type, fund_name) %>%
  summarize(n = n())

# A tibble: 101 × 3
# Groups:   major_type [3]
   major_type    fund_name                      n
   <chr>         <chr>                      <int>
 1 MISCELLANEOUS AMBULANCE SERVICE             31
 2 MISCELLANEOUS AQUARIUM & MUSEUM              1
 3 MISCELLANEOUS AUDITING                     129
 4 MISCELLANEOUS BONDS & INTEREST              33
 5 MISCELLANEOUS CONSERVATORY                   1
 6 MISCELLANEOUS CONSTRUCTION & DEVELOPMENT     1
 7 MISCELLANEOUS CORPORATE                    223
 8 MISCELLANEOUS EMERGENCY AND RESCUE          10
 9 MISCELLANEOUS EMPLOYEE A & B                 1
10 MISCELLANEOUS FIRE PENSION                  20
# ℹ 91 more rows

Code

agency_funds %>% 
  filter(major_type != "COOK COUNTY" & minor_type != "SSA") %>%
  filter(year == 2022 & levy > 0) %>%
  group_by(minor_type, fund_name) %>%
  summarize(n = n())

# A tibble: 205 × 3
# Groups:   minor_type [18]
   minor_type fund_name                                n
   <chr>      <chr>                                <int>
 1 BOND       BONDS & INTEREST                         3
 2 COMM COLL  AUDITING                                10
 3 COMM COLL  BUILDING                                11
 4 COMM COLL  BUILDING BONDS (BONDS & INT. SCHOOL)     5
 5 COMM COLL  EDUCATION                               11
 6 COMM COLL  LEVY ADJUSTMENT PA 102-0519             11
 7 COMM COLL  LIABILITY INSURANCE                     10
 8 COMM COLL  LIFE SAFETY                              3
 9 COMM COLL  LIMITED BONDS                            5
10 COMM COLL  SOCIAL SECURITY                          5
# ℹ 195 more rows
…
Inspect Library funds - are they library agencies or muni agencies?

Code

agency_funds %>% 
 # filter(year == 2022) %>%
  filter(fund_name == "LIBRARY BUILDING AND SITES" & levy > 0) %>%
  select(agency_name, everything()) %>% arrange(agency_name)

# A tibble: 821 × 20
   agency_name           year agency_num fund_num   levy loss_pct levy_plus_loss
   <chr>                <dbl> <chr>      <chr>     <dbl>    <dbl>          <dbl>
 1 ACORN PUBLIC LIBRAR…  2006 060010000  254      105000     0.03         108150
 2 ACORN PUBLIC LIBRAR…  2007 060010000  254      100000     0.03         103000
 3 ACORN PUBLIC LIBRAR…  2008 060010000  254      102950     0.03         106039
 4 ACORN PUBLIC LIBRAR…  2009 060010000  254      103920     0.03         107038
 5 ACORN PUBLIC LIBRAR…  2010 060010000  254      125020     0.03         128771
 6 ACORN PUBLIC LIBRAR…  2011 060010000  254      129052     0.03         132924
 7 ACORN PUBLIC LIBRAR…  2012 060010000  254      135000     0.03         139050
 8 ACORN PUBLIC LIBRAR…  2013 060010000  254      117000     0.03         120510
 9 ACORN PUBLIC LIBRAR…  2014 060010000  254      117000     0.03         120510
10 ACORN PUBLIC LIBRAR…  2015 060010000  254      120000     0.03         123600
# ℹ 811 more rows
# ℹ 13 more variables: rate_ceiling <dbl>, max_levy <dbl>, prelim_rate <dbl>,
#   ptell_reduced_levy <dbl>, ptell_reduced_ind <dbl>, final_levy <dbl>,
#   final_rate <dbl>, fund_name <chr>, capped_ind <dbl>,
#   agency_name_short <chr>, agency_name_original <chr>, major_type <chr>,
#   minor_type <chr>

Code

agency_funds %>% 
  group_by(year, agency_name, agency_num, major_type, minor_type, capped_ind) %>%
  summarize(fundcount = n(),
            levy=sum(levy, na.rm=TRUE) ) %>%
  select(agency_name, everything()) %>% 
  arrange(agency_name)

# A tibble: 26,192 × 8
# Groups:   year, agency_name, agency_num, major_type, minor_type [17,294]
   agency_name        year agency_num major_type minor_type capped_ind fundcount
   <chr>             <dbl> <chr>      <chr>      <chr>           <dbl>     <int>
 1 ACORN PUBLIC LIB…  2006 060010000  MISCELLAN… LIBRARY             0         1
 2 ACORN PUBLIC LIB…  2006 060010000  MISCELLAN… LIBRARY             1         9
 3 ACORN PUBLIC LIB…  2007 060010000  MISCELLAN… LIBRARY             0         1
 4 ACORN PUBLIC LIB…  2007 060010000  MISCELLAN… LIBRARY             1         9
 5 ACORN PUBLIC LIB…  2008 060010000  MISCELLAN… LIBRARY             0         1
 6 ACORN PUBLIC LIB…  2008 060010000  MISCELLAN… LIBRARY             1         9
 7 ACORN PUBLIC LIB…  2009 060010000  MISCELLAN… LIBRARY             0         1
 8 ACORN PUBLIC LIB…  2009 060010000  MISCELLAN… LIBRARY             1         9
 9 ACORN PUBLIC LIB…  2010 060010000  MISCELLAN… LIBRARY             0         1
10 ACORN PUBLIC LIB…  2010 060010000  MISCELLAN… LIBRARY             1         9
# ℹ 26,182 more rows
# ℹ 1 more variable: levy <dbl>
…
