Replication Code for Measuring Local Government Levies’ Responsiveness to the Property Tax Base
…
df |>
  ungroup() |>
  group_by(year) |>
  filter(year > 2006) |>
  mutate(
  #  eav_quant = quantile(eav_change, probs = c(.5, .95), na.rm=TRUE),
            eavquant05 = round(quantile(eav_change, probs = q[1])), 
            eavquant90 = round(quantile(eav_change, probs = q[2])),
   # levy_quant = quantile(levy_change, probs=c(.5, .95),na.rm=TRUE),
                levyquant05 = round(quantile(levy_change, probs = q[1])),
            levyquant95 = round(quantile(levy_change, probs = q[2])),
)

# A tibble: 7,174 × 58
# Groups:   year [17]
    year agency_group         agency_name agency_num total_final_levy major_type
   <dbl> <chr>                <chr>       <chr>                 <dbl> <chr>     
 1  2007 Acorn Public Librar… ACORN PUBL… 060010000            890440 MISCELLAN…
 2  2007 Alsip                VILLAGE OF… 030010000           6200201 MUNICIPAL…
 3  2007 Alsip Merrionette P… ALSIP MERR… 060020000           2353352 MISCELLAN…
 4  2007 Alsip Park District  ALSIP PARK… 050010000           2438122 MISCELLAN…
 5  2007 Arlington Heights    VILLAGE OF… 030020000          38363139 MUNICIPAL…
 6  2007 Arlington Heights P… ARLINGTON … 050020000          12914014 MISCELLAN…
 7  2007 Arlington Heights T… ARLINGTON … 042150000         175769291 SCHOOL    
 8  2007 Barrington Public L… BARRINGTON… 060030000           2567728 MISCELLAN…
 9  2007 Barrington Township  TOWN BARRI… 020010000            342990 MUNICIPAL…
10  2007 Bedford Park         VILLAGE OF… 030060000           9764218 MUNICIPAL…
# ℹ 7,164 more rows
# ℹ 52 more variables: minor_type <chr>, cty_cook_eav <dbl>,
#   cty_total_eav <dbl>, total_fmv <dbl>, taxed_fmv <dbl>, taxed_eav <dbl>,
#   total_eav <dbl>, av <dbl>, triad_name <chr>, agency_count <dbl>,
#   reassess_year <dbl>, home_rule_ind <dbl>, flag_drop <lgl>,
#   c2_median_fmv <dbl>, c2_median_fmv_taxed <dbl>, c2_sd_fmv <dbl>,
#   c2_sd_fmv_taxed <dbl>, bundled <dbl>, uniqueid <chr>, first2_dig <chr>, …
…
Code

df |> filter(between(levy_change, -50000, 50000))

# A tibble: 2,522 × 54
# Groups:   agency_group [422]
    year agency_group         agency_name agency_num total_final_levy major_type
   <dbl> <chr>                <chr>       <chr>                 <dbl> <chr>     
 1  2006 Acorn Public Librar… ACORN PUBL… 060010000            860897 MISCELLAN…
 2  2006 Alsip                VILLAGE OF… 030010000           5740624 MUNICIPAL…
 3  2006 Alsip Merrionette P… ALSIP MERR… 060020000           2280203 MISCELLAN…
 4  2006 Alsip Park District  ALSIP PARK… 050010000           2374624 MISCELLAN…
 5  2006 Arlington Heights    VILLAGE OF… 030020000          36783532 MUNICIPAL…
 6  2006 Arlington Heights P… ARLINGTON … 050020000          12531652 MISCELLAN…
 7  2006 Arlington Heights T… ARLINGTON … 042150000         170089071 SCHOOL    
 8  2006 Barrington Public L… BARRINGTON… 060030000           2351432 MISCELLAN…
 9  2006 Barrington Township  TOWN BARRI… 020010000            342990 MUNICIPAL…
10  2006 Bedford Park         VILLAGE OF… 030060000           9565736 MUNICIPAL…
# ℹ 2,512 more rows
# ℹ 48 more variables: minor_type <chr>, cty_cook_eav <dbl>,
#   cty_total_eav <dbl>, total_fmv <dbl>, taxed_fmv <dbl>, taxed_eav <dbl>,
#   total_eav <dbl>, av <dbl>, triad_name <chr>, agency_count <dbl>,
#   reassess_year <dbl>, home_rule_ind <dbl>, flag_drop <lgl>,
#   c2_median_fmv <dbl>, c2_median_fmv_taxed <dbl>, c2_sd_fmv <dbl>,
#   c2_sd_fmv_taxed <dbl>, bundled <dbl>, uniqueid <chr>, first2_dig <chr>, …

Code

df |> filter(between(eav_change, -2500000, 2500000))

# A tibble: 1,243 × 54
# Groups:   agency_group [422]
    year agency_group         agency_name agency_num total_final_levy major_type
   <dbl> <chr>                <chr>       <chr>                 <dbl> <chr>     
 1  2006 Acorn Public Librar… ACORN PUBL… 060010000            860897 MISCELLAN…
 2  2006 Alsip                VILLAGE OF… 030010000           5740624 MUNICIPAL…
 3  2006 Alsip Merrionette P… ALSIP MERR… 060020000           2280203 MISCELLAN…
 4  2006 Alsip Park District  ALSIP PARK… 050010000           2374624 MISCELLAN…
 5  2006 Arlington Heights    VILLAGE OF… 030020000          36783532 MUNICIPAL…
 6  2006 Arlington Heights P… ARLINGTON … 050020000          12531652 MISCELLAN…
 7  2006 Arlington Heights T… ARLINGTON … 042150000         170089071 SCHOOL    
 8  2006 Barrington Public L… BARRINGTON… 060030000           2351432 MISCELLAN…
 9  2006 Barrington Township  TOWN BARRI… 020010000            342990 MUNICIPAL…
10  2006 Bedford Park         VILLAGE OF… 030060000           9565736 MUNICIPAL…
# ℹ 1,233 more rows
# ℹ 48 more variables: minor_type <chr>, cty_cook_eav <dbl>,
#   cty_total_eav <dbl>, total_fmv <dbl>, taxed_fmv <dbl>, taxed_eav <dbl>,
#   total_eav <dbl>, av <dbl>, triad_name <chr>, agency_count <dbl>,
#   reassess_year <dbl>, home_rule_ind <dbl>, flag_drop <lgl>,
#   c2_median_fmv <dbl>, c2_median_fmv_taxed <dbl>, c2_sd_fmv <dbl>,
#   c2_sd_fmv_taxed <dbl>, bundled <dbl>, uniqueid <chr>, first2_dig <chr>, …
…
